<?xml version="1.0" encoding="utf-8"?>
<!-- Generator: Adobe Illustrator 16.0.0, SVG Export Plug-In . SVG Version: 6.00 Build 0)  -->
<!DOCTYPE svg PUBLIC "-//W3C//DTD SVG 1.1//EN" "http://www.w3.org/Graphics/SVG/1.1/DTD/svg11.dtd">
<svg version="1.1" id="Ebene_1" xmlns="http://www.w3.org/2000/svg" xmlns:xlink="http://www.w3.org/1999/xlink" x="0px" y="0px"
	 width="64px" height="64px" viewBox="0 0 64 64" enable-background="new 0 0 64 64" xml:space="preserve">
<path fill="#BFCF32" d="M62.596,39.019c-0.273-0.745-0.691-1.376-1.04-2.061c-1.091-2.146-2.56-3.965-4.68-5.177
	c-1.027-0.585-2.096-1.095-3.129-1.667c-3.212-1.778-6.567-3.055-10.262-3.489c-2.301-0.271-4.568-0.471-6.871-0.167
	c-1.295,0.17-2.594,0.307-3.894,0.438c-3.876,0.393-7.151-0.855-9.863-3.636c-0.326-0.333-0.704-0.613-0.496-1.199
	c0.041-0.114-0.237-0.398-0.423-0.524c-0.466-0.315-0.729-0.737-0.864-1.277c-0.428-1.718-0.825-3.447-1.321-5.147
	c-0.991-3.391-2.973-5.987-6.26-7.454c-0.499-0.223-0.641-0.537-0.582-1.02c0.098-0.801,0.155-1.612,0.31-2.404
	c0.209-1.066,0.505-2.115,0.74-3.176c0.152-0.688-0.151-0.984-0.854-0.861c-0.245,0.043-0.477,0.169-0.719,0.194
	c-0.484,0.052-0.984,0.135-1.46,0.071c-0.709-0.095-0.875-0.068-1.162,0.574C9.511,1.604,9.261,2.173,9.03,2.75
	C8.536,3.992,8.078,5.248,7.553,6.476C7.418,6.792,7.148,7.147,6.85,7.28C5.578,7.846,4.68,8.79,3.858,9.875
	c-2.69,3.552-3.652,7.551-3.212,11.939c0.168,1.664,0.645,3.306,0.343,5.006c-0.034,0.191,0.061,0.42,0.144,0.613
	c0.202,0.476,0.496,0.923,0.637,1.417c0.479,1.671,0.852,3.363,1.468,5.002c0.929,2.472,1.695,5.003,2.544,7.505
	c0.681,2.008,1.535,3.916,2.76,5.679c1.856,2.668,3.922,5.142,6.336,7.312c0.945,0.848,1.938,1.669,3.008,2.348
	c1.624,1.03,3.288,2.016,5.014,2.858c3.526,1.722,7.151,3.192,11.101,3.641c1.976,0.223,3.949,0.442,5.924,0.664
	c0.005-0.049,0.009-0.099,0.011-0.145c0.685,0,1.374,0.054,2.052-0.012c2.321-0.23,4.622-0.59,6.902-1.1
	c2.098-0.468,4.142-1.011,6.07-2.033c2.955-1.563,5.08-3.84,6.461-6.849c0.899-1.96,1.479-3.999,1.775-6.152
	C63.599,44.659,63.631,41.828,62.596,39.019z M44.317,36.882c0.883,0.135,1.59,0.623,2.202,1.302
	c-0.764-0.376-1.524-0.752-2.288-1.128C44.259,36.997,44.289,36.94,44.317,36.882z M40.03,30.331c0.01,0.066,0.019,0.133,0.028,0.2
	c-1.357,0.495-2.77,0.552-4.178,0.653c-0.013-0.097-0.026-0.193-0.038-0.29C37.239,30.707,38.635,30.518,40.03,30.331z
	 M39.554,38.559c-0.04,0.075-0.078,0.151-0.117,0.226c-0.361-0.194-0.726-0.389-1.088-0.581c0.033-0.069,0.069-0.138,0.105-0.206
	C38.82,38.185,39.188,38.37,39.554,38.559z M38.859,36.387c0.014-0.053,0.028-0.105,0.042-0.158c0.213,0.06,0.425,0.119,0.641,0.178
	c-0.014,0.053-0.028,0.105-0.041,0.156C39.289,36.505,39.075,36.446,38.859,36.387z M33.325,33.419
	c1.075,0.484,2.15,0.969,3.229,1.451c-0.009,0.064-0.016,0.128-0.022,0.193c-0.106,0.042-0.244,0.152-0.313,0.119
	c-1.007-0.5-2.005-1.019-3.007-1.53C33.249,33.573,33.286,33.497,33.325,33.419z M28.703,30.219c0.549,0.24,1.099,0.48,1.647,0.72
	c-0.043,0.071-0.09,0.142-0.133,0.214c-0.533-0.251-1.064-0.501-1.597-0.752C28.648,30.339,28.675,30.279,28.703,30.219z
	 M19.069,21.308c0.554,0.577,0.967,1.02,1.395,1.448c0.896,0.898,1.8,1.789,2.705,2.679c0.172,0.168,0.363,0.315,0.715,0.622
	c-0.409-0.06-0.618-0.047-0.79-0.122c-1.556-0.662-2.743-1.787-3.759-3.1C19.065,22.487,18.804,22.072,19.069,21.308z
	 M18.539,16.571c-0.504-0.818-0.74-1.639-0.905-2.562C18.333,14.477,18.707,15.546,18.539,16.571z M14.154,12.845
	c-0.6-0.165-1.236-0.704-1.805-1.585C13.129,11.552,13.711,12.072,14.154,12.845z M11.072,13.206
	c0.049-0.286,0.101-0.581,0.191-1.11c0.519,0.509,0.879,0.863,1.238,1.215C12.065,13.278,11.624,13.246,11.072,13.206z
	 M11.188,17.159c-0.168-0.842-0.312-1.696,0.037-2.529C11.517,15.473,11.318,16.312,11.188,17.159z M13.846,14.596
	c-0.046,0.043-0.094,0.089-0.139,0.133c-0.54-0.312-1.063-0.638-1.148-1.361C12.988,13.776,13.417,14.186,13.846,14.596z
	 M11.71,3.114c0.057,0.035,0.112,0.07,0.167,0.106c-0.664,1.464-1.331,2.925-2.185,4.288c-0.066-0.034-0.134-0.07-0.203-0.105
	C10.229,5.973,10.97,4.543,11.71,3.114z M7,12.328v1.507C6,13.315,6,12.926,7,12.328z M4.492,11.115
	c0.22-0.526,1.237-1.617,1.722-1.853c-0.566,0.885-1.089,1.708-1.615,2.53c-0.065-0.017-0.13-0.032-0.198-0.048
	C4.429,11.534,4.412,11.303,4.492,11.115z M4.864,13.971c0.111,0.491,0.104,0.488-0.515,1.806c-0.285,0.607-0.54,1.229-0.808,1.845
	C3.485,16.562,4.22,14.753,4.864,13.971z M5.148,34.299c0.079-0.013,0.157-0.025,0.236-0.037c0.131,0.871,0.263,1.742,0.396,2.613
	C5.159,36.083,4.89,35.233,5.148,34.299z M7.522,22.136c-0.27-0.333-0.532-0.605-1.002-0.537c-0.5,0.072-0.756,0.383-0.865,0.85
	c-0.05,0.212-0.141,0.418-0.171,0.631c-0.316,2.259-1.168,4.378-1.698,6.58c-0.026,0.105-0.092,0.203-0.161,0.348
	C2.737,27.549,4.67,19.655,6.554,18.062c0.078,0.182,0.176,0.337,0.211,0.507c0.259,1.218,1.09,1.928,2.094,2.56
	c0.951,0.595,1.812,1.329,2.167,2.472c0.029,0.088,0.063,0.176,0.101,0.261c0.13,0.293,0.342,0.431,0.67,0.347
	c0.309-0.078,0.5-0.246,0.465-0.589c-0.024-0.247,0.005-0.526-0.099-0.734c-0.417-0.83-0.311-1.701-0.224-2.556
	c0.141-1.389,0.351-2.771,0.544-4.154c0.02-0.143,0.123-0.273,0.246-0.536c0.833,0.69,1.627,1.298,2.189,2.163
	c0.168,0.261,0.301,0.583,0.541,0.747c0.221,0.151,0.568,0.193,0.85,0.168c0.33-0.026,0.404-0.323,0.423-0.628
	c0.024-0.421-0.031-0.871,0.433-1.303c0.403,1.426,0.784,2.775,1.178,4.169c-0.38,0.349-1.034,0.631-0.904,1.511
	c-0.265-0.19-0.546-0.362-0.79-0.576c-0.656-0.574-1.288-1.171-1.947-1.741c-0.542-0.472-0.551-0.462-1.352-0.097
	c0.537,1.826,0.126,3.657-0.05,5.494c-0.058,0.609-0.112,1.218-0.185,2.026c-0.323-0.264-0.55-0.4-0.71-0.59
	c-1.067-1.265-2.306-2.346-3.569-3.408C8.345,23.16,7.931,22.641,7.522,22.136z M16.431,29.246
	c-0.401-0.377-0.905-0.684-1.084-1.401C15.951,28.254,15.992,28.304,16.431,29.246z M10.687,26.712l-0.141,0.156
	c-0.275-0.3-0.55-0.601-0.826-0.902C10.153,26.093,10.433,26.388,10.687,26.712z M8.512,33.507c-0.06-0.693-0.121-1.385-0.182-2.077
	c0.065-0.016,0.131-0.031,0.196-0.047c0.297,0.514,0.439,1.095,0.547,1.675c0.027,0.141-0.201,0.331-0.311,0.499
	C8.678,33.54,8.596,33.524,8.512,33.507z M11.497,47.034c0.405,0.193,0.6,0.58,0.793,0.975C11.749,47.918,11.7,47.414,11.497,47.034
	z M39.915,61.811h-0.437c0-0.01,0-0.018,0-0.025h0.437V61.811z M47.86,60.752c-0.742,0.168-1.487,0.326-2.23,0.489
	c-0.022-0.065-0.043-0.131-0.064-0.199c0.771-0.407,1.563-0.709,2.548-0.479C47.993,60.655,47.934,60.734,47.86,60.752z
	 M49.724,58.821c0.577-0.622,1.364-0.787,2.119-1.034C51.241,58.359,50.514,58.655,49.724,58.821z M58.874,48.954
	c-1.493,2.392-2.434,3.932-4.192,5.397c0.035,0.06,0.071,0.121,0.106,0.179c-0.742,0.713-1.738,1.019-2.596,1.546
	c-0.001-0.003-0.004-0.006-0.005-0.009c-0.592,0.348-1.247,0.706-1.995,1.086c-3.307,1.68-9.759,2.429-14.76,2.05
	C34.773,59.213,34.173,59,33.737,59h0.002c-0.286,0-0.56-0.473-0.829-0.522C32.508,58.695,32.104,59,31.593,58h0.855
	c-1.615,0-2.871-0.459-3.479-1.178c-2.516-2.969-8.2-0.961-8.2-4.209c0-0.624-0.069-1.087-0.173-1.62
	c-1.653,0.192-2.997-0.498-4.29-1.399c-1.739-1.211-3.057-2.8-4.135-4.587c-0.93-1.538-1.727-3.145-2.555-4.742
	c-0.451-0.87-0.567-1.825-0.646-2.79c-0.03-0.355,0.051-0.61,0.436-0.686c0.06,0.022,0.136,0.032,0.169,0.075
	c1.06,1.334,2.124,2.667,3.165,4.017c0.474,0.612,0.895,1.265,1.345,1.897c0.448,0.63,0.94,1.216,1.466,1.774
	c-0.178-2.121,0.394-4.821,0.394-4.821l-3.135-5.248c0,0-4.581-2.47,0.242-2.47c4.227,0,4.581-7.658,4.581-7.658
	s1.844,4.313,5.108,6.466c-0.01-0.027-0.028-0.055-0.038-0.082c0.061,0.056,0.115,0.105,0.174,0.161
	c1.053,0.667,2.247,1.113,3.575,1.113c5.548,0,14.575,9.848,18.433,9.848c2.575,0,6.859-0.922,9.431-1.536
	c-1.955-2.067-4.397-3.535-7.185-4.74c0.377-0.086,0.539-0.148,0.703-0.155c0.31-0.013,0.621,0.02,0.932,0.01
	c3.331-0.099,5.828,1.413,7.711,4.049c0.155,0.218,0.252,0.464,0.332,0.715C57.866,41.512,60.888,45.729,58.874,48.954z
	 M11.228,33.897c0.301,0.484,0.603,0.971,0.902,1.454C11.414,35.187,11.274,34.984,11.228,33.897z M12.208,35.466
	c0.506,0.747,1.162,1.416,1.446,2.432C12.973,37.412,12.372,36.34,12.208,35.466z M47.201,40.847
	c0.042-0.071,0.085-0.144,0.125-0.217c0.235,0.144,0.471,0.288,0.706,0.433c-0.027,0.051-0.057,0.102-0.085,0.15
	C47.699,41.092,47.449,40.97,47.201,40.847z M59.63,41.838c-0.255-0.319-0.303-0.634-0.042-1.05
	C59.937,41.195,59.7,41.524,59.63,41.838z"/>
</svg>
