<?xml version="1.0" encoding="utf-8"?>
<!-- Generator: Adobe Illustrator 16.0.0, SVG Export Plug-In . SVG Version: 6.00 Build 0)  -->
<!DOCTYPE svg PUBLIC "-//W3C//DTD SVG 1.1//EN" "http://www.w3.org/Graphics/SVG/1.1/DTD/svg11.dtd">
<svg version="1.1" id="Ebene_1" xmlns="http://www.w3.org/2000/svg" xmlns:xlink="http://www.w3.org/1999/xlink" x="0px" y="0px"
	 width="64px" height="64px" viewBox="0 0 64 64" enable-background="new 0 0 64 64" xml:space="preserve">
<g>
	<g>
		<path fill="#FFFFFF" d="M4.91,49.979c-0.587,0-1.151-0.215-1.59-0.606c-0.477-0.423-0.761-1.009-0.798-1.647
			c-0.038-0.639,0.176-1.252,0.602-1.729l28.878-32.479l28.875,32.481c0.425,0.475,0.639,1.09,0.602,1.729
			c-0.038,0.639-0.322,1.225-0.801,1.648c-0.44,0.39-1.005,0.604-1.59,0.604c-0.684,0-1.335-0.293-1.787-0.804L32.002,20.716
			L6.697,49.175C6.245,49.686,5.593,49.979,4.91,49.979z"/>
		<path fill="#FFFFFF" d="M32.002,15.021l28.128,31.64c0.512,0.573,0.46,1.455-0.115,1.965c-0.267,0.235-0.598,0.352-0.927,0.352
			c-0.384,0-0.764-0.157-1.038-0.467l-26.048-29.3L5.95,48.511c-0.274,0.31-0.657,0.468-1.04,0.468
			c-0.329,0-0.659-0.116-0.924-0.353c-0.575-0.511-0.627-1.392-0.116-1.965L32.002,15.021 M32.002,12.011l-1.495,1.681L2.375,45.332
			c-0.601,0.674-0.904,1.545-0.852,2.45c0.053,0.906,0.456,1.737,1.134,2.339c0.619,0.552,1.42,0.857,2.252,0.857
			c0.969,0,1.894-0.416,2.537-1.141l24.556-27.617L56.555,49.84c0.64,0.722,1.563,1.138,2.533,1.138
			c0.828,0,1.628-0.303,2.251-0.853c0.682-0.604,1.085-1.435,1.138-2.341s-0.251-1.778-0.854-2.455L33.497,13.692L32.002,12.011
			L32.002,12.011z"/>
	</g>
</g>
</svg>
